<?xml version="1.0" encoding="utf-8"?>
<!-- Generator: Adobe Illustrator 18.1.0, SVG Export Plug-In . SVG Version: 6.00 Build 0)  -->
<!DOCTYPE svg PUBLIC "-//W3C//DTD SVG 1.1//EN" "http://www.w3.org/Graphics/SVG/1.1/DTD/svg11.dtd">
<svg version="1.1" id="Layer_1" xmlns="http://www.w3.org/2000/svg" xmlns:xlink="http://www.w3.org/1999/xlink" x="0px" y="0px"
	 viewBox="211 96 1034 601" enable-background="new 211 96 1034 601" xml:space="preserve">
<path stroke="#000000" stroke-width="0.5" d="M903.2,198.8l-0.2-0.3l-0.2-0.3l-0.3-0.2l-0.3-0.2l-0.2-0.3l-0.2-0.3l-0.3-0.2
	l-0.3-0.2l-0.2-0.3l-0.2-0.3l-0.3-0.2l-0.3-0.2l-0.2-0.3l-0.2-0.3l-0.3-0.2l-0.3-0.2l-0.2-0.3l-0.2-0.3l-0.3-0.2l-0.3-0.2l-0.2-0.3
	l-0.2-0.3l-0.3-0.2l-0.3-0.2l-0.2-0.3h2h2l2,0.5l2,0.5l34,9.5c22.7,6.3,44,13.5,64,21.5s37.3,15.9,51.8,23.7
	c14.5,7.9,27.6,15.9,39.4,24c11.9,8.2,22.5,16.5,32,25c9.5,8.5,18.1,17.8,25.8,27.8s13.7,19.3,18,28c4.3,8.7,7.5,17.3,9.5,26
	s2.8,17.3,2.5,26s-1.8,17.7-4.5,27s-6.3,18.7-11,28s-10.5,18.7-17.5,28s-14.4,17.9-22.2,25.8c-7.9,7.8-18.3,16.4-31.3,25.7
	s-26.7,17.8-41,25.5s-30.3,14.8-48,21.5c-17.7,6.7-28,10.5-31,11.5s-5.2,1.7-6.5,2l-2,0.5l-1.5,0.5l-1.5,0.5l-1.5,0.5l-1.5,0.5
	l-1,0.3l-1,0.2v-1v-1l1-0.2l1-0.3l0.2-0.3l0.3-0.2l0.3-0.2l0.2-0.3l0.2-0.3l0.3-0.2l0.3-0.2l0.2-0.3l0.2-0.3l0.3-0.2l0.3-0.2
	l0.2-0.3l0.2-0.3l0.3-0.2l0.3-0.2c0.1-0.2,0.6-0.7,1.4-1.6c0.9-0.8,5.5-6.3,14-16.4c8.5-10.2,15.5-20.5,21-31
	c5.5-10.5,9.3-20.5,11.3-29.8c2-9.3,2.7-17.3,2-24s-2.2-12.5-4.5-17.5s-5.3-9.1-8.8-12.3c-3.5-3.1-7.7-5.7-12.7-7.7s-11.5-3-19.5-3
	s-17,1.7-27,5s-20.2,8.2-30.5,14.5s-19.8,13.2-28.5,20.5l-13,11l-0.2,0.3l-0.3,0.2l-0.3,0.2l-0.2,0.3l-1.5,0.3L866,506l-0.2-1
	c-0.2-0.7-2.6-4.3-7.3-11s-9.2-11.6-13.7-14.8c-4.5-3.1-9-4.9-13.3-5.2s-9.2,0.8-14.5,3.5s-10,6-14,10s-9.7,11.2-17,21.5
	c-7.3,10.3-17.7,27.9-31.2,52.8L734.5,599l-0.5,1l-0.5,1l-0.5,1l-0.5,1l-0.5,1l-0.5,1l-0.5-1l-0.5-1l-0.5-1l-0.5-1l-0.3-0.2
	l-0.2-0.3l-0.2-0.3l-0.3-0.2l-0.5-1c-0.3-0.7-5.3-10.2-15-28.5s-18.5-34-26.5-47s-15.2-23.1-21.7-30.3c-6.5-7.1-12.1-12-16.8-14.7
	s-9-4.2-13-4.5s-7-0.2-9,0.5s-5.2,2.7-9.5,6s-8.7,8.4-13,15.3L597,506l-1.5-0.2l-1.5-0.3l-0.2-0.3l-0.3-0.2l-0.3-0.2l-0.2-0.3
	l-13-11c-8.7-7.3-18.2-14.2-28.5-20.5s-19.7-11-28-14s-16-4.8-23-5.5s-13.5-0.3-19.5,1s-10.8,3.1-14.5,5.3c-3.7,2.1-5.5,3.5-5.5,4.2
	s-0.3,1-1,1s-2.4,2.5-5.2,7.5c-2.9,5-4.8,9.8-5.8,14.5s-1.2,11-0.5,19s2.7,16.7,6,26s8.2,18.8,14.5,28.5
	c6.3,9.7,12.7,18.1,19.2,25.3c6.5,7.1,9.9,10.8,10,11l0.3,0.2l0.3,0.2l0.2,0.3l0.2,0.3l0.3,0.2l0.3,0.2l0.2,0.3l0.2,0.3l0.3,0.2
	l0.3,0.2l0.2,0.3l0.2,0.3l0.3,0.2l0.3,0.2l0.2,0.3l1,0.3l1,0.2v1v1l-1-0.2l-1-0.3l-1.5-0.5l-1.5-0.5l-1.5-0.5l-1.5-0.5l-1.5-0.5
	c-1-0.3-4.8-1.5-11.5-3.5s-18.5-6.5-35.5-13.5s-32.2-14.2-45.5-21.5s-25.5-15-36.5-23s-20.4-15.9-28.3-23.7
	c-7.8-7.9-15.1-16.2-22-25c-6.8-8.9-12.8-18.2-18-28c-5.1-9.9-9-19.6-11.7-29.3s-4.2-19-4.5-28s0.5-17.7,2.5-26s5.3-17.2,10-26.5
	c4.7-9.3,10.9-18.9,18.7-28.8c7.9-9.8,17-19.2,27.3-28.2c10.3-9,20.8-17.2,31.5-24.5s23.5-15,38.5-23s32.7-16,53-24
	c20.3-8,41.3-15,63-21l32.5-9l2-0.5l2-0.5h2h2l-0.2,0.3l-0.3,0.2l-0.3,0.2l-0.2,0.3l-0.2,0.3l-0.3,0.2l-0.3,0.2l-0.2,0.3l-0.2,0.3
	l-0.3,0.2l-0.3,0.2l-0.2,0.3l-0.2,0.3l-0.3,0.2l-0.3,0.2l-0.2,0.3l-0.2,0.3l-0.3,0.2l-0.3,0.2l-0.2,0.3l-0.2,0.3l-0.3,0.2l-0.3,0.2
	l-0.2,0.3l-10.2,12.3c-6.9,8.1-12.1,15.9-15.8,23.2s-6.2,13.7-7.5,19c-1.3,5.3-1.8,10.8-1.5,16.5s1.7,11.2,4.2,16.7
	c2.5,5.5,5.3,10.1,8.3,13.8s7.8,7.7,14.5,12s14.5,8,23.5,11s19.5,4.5,31.5,4.5s20.3-1.2,25-3.5s8.9-5.1,12.8-8.2
	c3.8-3.2,8-8.3,12.7-15.3s8.7-14.8,12-23.5s5.8-25.7,7.5-51s3.1-40.9,4.2-46.8c1.2-5.8,4.4-3.8,9.6,6c5.1,9.9,8.3,16.6,9.4,20.3
	c1.2,3.7,5,4.9,11.3,3.7c6.3-1.1,14.2-1.5,23.5-1.2s16,0.9,20,1.8c4,0.8,7.6-2.8,10.8-10.8c3.1-8,6.4-14.8,9.7-20.5s6,0.8,8,19.5
	s3.3,34.3,4,47c0.7,12.7,2.7,23.3,6,32s7.1,16.1,11.3,22.2c4.1,6.2,8,11.1,11.7,14.8s8.2,6.8,13.5,9.5s14,4,26,4s22.5-1.5,31.5-4.5
	s16.3-6.3,22-10s10.6-7.7,14.7-12.2c4.2-4.5,7.5-9.6,9.8-15.3s3.5-12,3.5-19s-1.2-13.8-3.5-20.5s-5.8-13.7-10.5-21
	c-4.7-7.3-9.2-13.5-13.5-18.5S903.4,198.9,903.2,198.8z"/>
<path fill="#030303" stroke="#030303" stroke-width="0.5" d="M1174.8,286.5l0.2,0.5v1.8c0,1.1,0.1,1.8,0.2,2l0.3,0.2v1.5v1.5
	l-0.3-0.2c-0.1-0.2-0.5-0.4-1.2-0.6c-0.7-0.1-1.1,0.1-1.2,0.8c-0.2,0.7-1.2,1.2-3,1.5l-2.8,0.5l0.5,1.2c0.3,0.9,0.8,1.1,1.3,0.6
	c0.5-0.5,0.8-0.3,1,0.7l0.2,1.5h-1h-1l-0.2,1l-0.3,1l-0.3-0.2l-0.2-0.3l-0.2-0.3l-0.3-0.2l-0.5-1c-0.3-0.7-0.7-0.7-1.2-0.2l-0.8,0.7
	l-0.2,0.3l-0.3,0.2l-0.3,0.2l-0.2,0.3v0.3v0.2l-0.5-0.2c-0.3-0.2-4.2-4-11.5-11.3s-15.9-14.9-25.8-22.7
	c-9.8-7.9-21.6-16.1-35.4-24.6c-13.9-8.5-29.5-16.7-46.8-24.7s-36.3-15.5-57-22.5s-42.8-13.2-66.5-18.5s-48.2-9.7-73.5-13
	s-53-5.5-83-6.5s-56.8-0.8-80.5,0.5s-47.5,3.7-71.5,7s-48,7.8-72,13.5s-46,12-66,19s-38.3,14.5-55,22.5s-31.8,16.2-45.5,24.5
	s-26.2,17.2-37.5,26.5c-11.3,9.3-20.8,18.3-28.5,27s-14.3,17.2-20,25.7L278,337h-0.2c-0.2,0-0.4,0.2-0.6,0.5L277,338l-2,0.2l-2,0.3
	l-1,0.3l-1,0.2v-1v-1l1.5-0.2c1-0.2,0.3-0.5-2-1c-2.3-0.5-3.6-1.8-3.7-3.8c-0.2-2-0.9-4-2-6l-1.8-3l0.5-0.2c0.3-0.2,0.5-0.4,0.5-0.6
	V322l7.8-11.5c5.1-7.7,12.6-16.8,22.4-27.3c9.9-10.5,20.8-20.4,32.8-29.7c12-9.3,25.8-18.7,41.5-28c15.7-9.3,32-17.8,49-25.5
	s34.7-14.7,53-21c18.3-6.3,39.3-12.3,63-18c23.7-5.7,48.3-10.3,74-14s50.7-6.2,75-7.5s51.3-1.5,81-0.5s57.3,3.2,83,6.5
	s50.3,7.7,74,13c23.7,5.3,47,11.8,70,19.5s43.8,15.8,62.5,24.5s35.2,17.5,49.5,26.5s25.2,16.4,32.7,22.2
	c7.5,5.9,15.1,12.3,22.8,19.3s12.3,11.3,14,13S1174.6,286.2,1174.8,286.5z"/>
<path fill="#020202" stroke="#020202" stroke-width="0.5" d="M313.8,524.5l1.2-1.5l16,13.2c10.7,8.9,22.7,17.6,36,26.3
	s28.5,17.2,45.5,25.5s36.3,16.3,58,24c21.7,7.7,44.5,14.3,68.5,20s48,10.2,72,13.5s47.8,5.7,71.5,7S733,654,763,653s57.7-3.2,83-6.5
	s49.8-7.7,73.5-13S965.3,622,986,615s40.1-14.7,58.2-23.2c18.2-8.5,34.4-17.2,48.6-26c14.1-8.9,23.5-15.1,28.2-18.8s7.3-5.7,8-6
	l1-0.5l0.5-0.3l0.5-0.2l1,0.2l1,0.3l0.2,0.3l0.3,0.2l0.3,0.2l0.2,0.3l1.5,0.3l1.5,0.2v1.5v1.5h1h1l0.5,4.2c0.3,2.9,0.6,4.4,0.7,4.6
	c0.2,0.1,0.4,0.5,0.6,1.2l0.2,1v0.2c0,0.2-0.3,0.4-1,0.6l-1,0.2l-0.2-0.5c-0.2-0.3-0.7-0.7-1.6-1c-0.8-0.3-1.1-0.2-1,0.5l0.3,1
	l-0.3,0.8c-0.1,0.5-0.2,0.8-0.2,1v0.2l-0.5,0.2c-0.3,0.2-0.5,0.4-0.5,0.6v0.2l-0.2,0.5c-0.2,0.3-6,4.3-17.3,12s-24.2,15.4-38.7,23.3
	c-14.5,7.8-31.6,15.7-51.3,23.7c-19.7,8-41,15.3-64,22s-47.2,12.3-72.5,17s-50.7,8.2-76,10.5s-52.8,3.5-82.5,3.5
	c-29.7,0-54.7-0.8-75-2.5s-42.7-4.5-67-8.5s-48-9-71-15s-44-12.5-63-19.5S419,612,401,603s-33.5-17.7-46.5-26s-24.3-16.6-34-24.8
	L306,540l-0.5-0.2l-0.5-0.3v-0.3V539v-0.2c0-0.2,0.3-0.5,0.8-1l0.7-0.8l-0.3-0.2l-0.2-0.3l0.2-0.3l0.3-0.2l0.5-2
	c0.3-1.3,0.6-2.5,0.8-3.5l0.2-1.5l2-0.2c1.3-0.2,2.1-0.7,2.2-1.6C312.4,526.4,312.9,525.5,313.8,524.5z"/>
<path fill="#020202" stroke="#020202" stroke-width="0.5" d="M1175,288.8V287l11.2,14c7.5,9.3,14,19,19.3,29s9.7,20.7,13,32
	c3.3,11.3,5.3,19.7,6,25s0.8,13.2,0.5,23.5s-1.8,20.8-4.5,31.5s-6.5,21.2-11.5,31.5s-7.7,15.8-8,16.5l-0.5,1l-0.3,0.2l-0.2,0.3
	l-0.2,0.3l-0.3,0.2l-0.5,1.5l-0.5,1.5l-0.3,0.2l-0.2,0.3l-0.2,0.3l-0.3,0.2l-0.3,0.2l-0.2,0.3l-0.2,0.3l-0.3,0.2h-0.3h-0.2l0.2-2
	l0.3-2v-0.5V492l-0.3-0.2l-0.2-0.3l-0.2-0.3l-0.3-0.2l-0.3-0.2l-0.2-0.3l0.2-0.3l0.3-0.2v-0.5c0-0.3-0.2-2-0.7-5
	c-0.5-3-1.5-4.5-2.8-4.5s-1.9-0.3-1.8-1c0.2-0.7,0.4-1.8,0.6-3.5c0.1-1.7-0.5-2.3-1.8-2l-2,0.5l0.2-1c0.2-0.7,1.6-3.7,4.3-9
	s5.3-13,8-23s4-21.8,4-35.5s-1.2-25-3.5-34s-5.8-18.3-10.5-28c-4.7-9.7-10.1-18.6-16.3-26.7l-9.2-12.3l-0.2-0.3l-0.3-0.2l-0.3-1
	l-0.2-1v-0.2v-0.3l0.2-0.3l0.3-0.2l0.3-0.2l0.2-0.3l0.8-0.7c0.5-0.5,0.9-0.5,1.2,0.2l0.5,1l0.3,0.2l0.2,0.3l0.2,0.3l0.3,0.2v-1.5
	c0-1-0.1-2-0.3-3l-0.2-1.5l2.2-0.5c1.5-0.3,2.2-0.8,2-1.5c-0.1-0.7,0.5-0.9,1.8-0.8c1.3,0.2,2.1,0.4,2.2,0.6l0.3,0.2v-1.5V291
	l-0.3-0.2C1175.1,290.6,1175,289.9,1175,288.8z M1169.2,297.8c-0.1-0.2-0.1-0.4,0-0.6c0.2-0.1,0.3,0,0.3,0.3
	S1169.4,297.9,1169.2,297.8z"/>
<path fill="#020202" stroke="#020202" stroke-width="0.5" d="M263.8,322h0.2l1,2.8c0.7,1.8,1.2,3.9,1.5,6.4c0.3,2.5,1.7,4.1,4,4.6
	c2.3,0.5,3,0.8,2,1L271,337v1v1l1-0.2l1-0.3l1.5-0.5c1-0.3,1.8-0.6,2.5-0.8l1-0.2l-6.2,15c-4.2,10-7.1,19.5-8.8,28.5
	s-2.3,18.8-2,29.5s1.8,21,4.5,31s6.6,19.9,11.7,29.8c5.2,9.8,11.3,19.2,18.3,28.2s11.9,15.1,14.7,18.2c2.9,3.2,4.4,5,4.6,5.3
	l0.2,0.5l-1.2,1.5c-0.9,1-1.4,1.9-1.6,2.7c-0.1,0.9-0.9,1.4-2.2,1.6l-2,0.2l-0.2,1.5c-0.2,1-0.5,2.2-0.8,3.5l-0.5,2l-0.3,0.2
	l-0.2,0.3l0.2,0.3l0.3,0.2v1.5v1.5h-0.3H306l-0.5-0.2l-0.5-0.3v-0.3V539l-0.5-0.2l-0.5-0.3l-0.2-0.3l-0.3-0.2l-0.3-0.2l-0.2-0.3
	l-0.2-0.3l-0.3-0.2l-0.3-0.2l-0.2-0.3l-0.2-0.3l-0.3-0.2l-0.3-0.2l-0.2-0.3l-0.2-0.3c-0.2-0.1-1.3-1.2-3.3-3.2s-7.5-8.5-16.5-19.5
	s-16.7-22.8-23-35.5c-6.3-12.7-10.8-24.3-13.5-35s-4-23-4-37s1.3-26.2,4-36.5s6.4-20.5,11.3-30.5l7.2-15l0.2-0.5
	C263.4,322.2,263.6,322,263.8,322z"/>
<path fill="#030303" stroke="#030303" stroke-width="0.5" d="M1187.8,473.5l0.2-0.5h1.5c1,0,1.4,0.8,1.3,2.5
	c-0.2,1.7-0.4,2.8-0.6,3.5c-0.1,0.7,0.5,1,1.8,1s2.3,1.5,2.8,4.5c0.5,3,0.7,4.7,0.7,5v0.5l-0.3,0.2l-0.2,0.3l0.2,0.3l0.3,0.2
	l0.3,0.2l0.2,0.3l1,0.3c0.7,0.1,1,0.5,1,1.2v1l-0.5,0.2c-0.3,0.2-0.5,0.4-0.5,0.6v0.2h-0.2c-0.2,0-0.4,0.3-0.6,1l-0.2,1l-0.2,1
	c-0.2,0.7-4.3,5.8-12.3,15.5c-8,9.7-17.1,19.2-27.3,28.5l-15.2,14l-0.2-1c-0.2-0.7-0.4-0.7-0.6,0l-0.2,1l-0.2,0.5l-0.3,0.5h-0.3
	h-0.2l-0.2,0.5l-0.3,0.5l-0.3,0.2l-0.2,0.3l-0.2,0.3l-0.3,0.2l-0.3,0.2l-0.2,0.3l-1,0.3l-1,0.2v-1v-1l1-0.2l1-0.3l-0.2-0.3l-0.3-0.2
	l-0.3-1c-0.1-0.7,0.1-1,0.8-1s1.1-0.3,1.2-1c0.2-0.7,0.4-2.3,0.6-5l0.2-4l-1-0.2c-0.7-0.2-1.7-0.4-3-0.6c-1.3-0.1-1.9-0.7-1.8-1.7
	l0.3-1.5l-0.3-0.2l-0.2-0.3l-1-0.3l-1-0.2v-0.2v-0.3l0.2-0.3l0.3-0.2l0.3-0.2l0.2-0.3l0.2-0.3l0.3-0.2l12-11c8-7.3,15.7-15.7,23-25
	s12.3-16.2,15-20.5s4.1-6.7,4.3-7l0.2-0.5h0.2C1187.4,474,1187.6,473.8,1187.8,473.5z"/>
</svg>
